dnspython==1.16.0
numpy==1.18.3
pandas==1.0.3
pymongo==3.10.1
python-dateutil==2.8.1
pytz==2019.3
six==1.14.0
cycler==0.10.0
dnspython==1.16.0
joblib==1.0.0
kiwisolver==1.3.1
matplotlib==3.3.3
numpy==1.18.3
pandas==1.0.3
Pillow==8.1.0
pymongo==3.10.1
pyparsing==2.4.7
python-dateutil==2.8.1
pytz==2019.3
scikit-learn==0.24.0
scipy==1.6.0
six==1.14.0
sklearn==0.0
threadpoolctl==2.1.0
tqdm==4.48.2
